[gd_scene load_steps=5 format=2]

[ext_resource path="res://assets/turret.png" type="Texture" id=1]
[ext_resource path="res://assets/turret_base.png" type="Texture" id=2]
[ext_resource path="res://Turret.gd" type="Script" id=3]

[sub_resource type="RectangleShape2D" id=1]
extents = Vector2( 32, 32 )

[node name="Turret" type="Node2D"]
position = Vector2( 96, 288 )
script = ExtResource( 3 )

[node name="TurretBase" type="Sprite" parent="."]
texture = ExtResource( 2 )

[node name="Turret" type="Sprite" parent="."]
rotation = 1.5708
texture = ExtResource( 1 )

[node name="RayCast2D" type="RayCast2D" parent="Turret"]
cast_to = Vector2( 0, -200 )

[node name="ShootTimer" type="Timer" parent="."]
autostart = true

[node name="Area2D" type="Area2D" parent="."]

[node name="CollisionShape2D" type="CollisionShape2D" parent="Area2D"]
shape = SubResource( 1 )
[connection signal="timeout" from="ShootTimer" to="." method="_on_ShootTimer_timeout"]
[connection signal="input_event" from="Area2D" to="." method="_on_Area2D_input_event"]
